{
  "merchant_summary": [
    {
      "merchant_id": "A1201",
      "name": "Rohan LLC Shoes",
      "_links": {
        "self": {
          "href": "/merchants/A1201.json"
        }
      }
    },
    {
      "merchant_id": "A1202",
      "name": "Carroll - Lang Grocery",
      "_links": {
        "self": {
          "href": "/merchants/A1202.json"
        }
      }
    },
    {
      "merchant_id": "A1203",
      "name": "Runolfsdottir Group Health",
      "_links": {
        "self": {
          "href": "/merchants/A1203.json"
        }
      }
    },
    {
      "merchant_id": "A1204",
      "name": "Bartell, Walter and Koch Toys",
      "_links": {
        "self": {
          "href": "/merchants/A1204.json"
        }
      }
    },
    {
      "merchant_id": "A1205",
      "name": "Blick LLC and Sons",
      "_links": {
        "self": {
          "href": "/merchants/A1205.json"
        }
      }
    },
    {
      "merchant_id": "A1206",
      "name": "Fisher - Fay Industrial",
      "_links": {
        "self": {
          "href": "/merchants/A1206.json"
        }
      }
    },
    {
      "merchant_id": "A1207",
      "name": "Fadel - Braun Industrial",
      "_links": {
        "self": {
          "href": "/merchants/A1207.json"
        }
      }
    },
    {
      "merchant_id": "A1208",
      "name": "Hermiston - Murray Group",
      "_links": {
        "self": {
          "href": "/merchants/A1208.json"
        }
      }
    },
    {
      "merchant_id": "A1209",
      "name": "White - Robel Grocery",
      "_links": {
        "self": {
          "href": "/merchants/A1209.json"
        }
      }
    },
    {
      "merchant_id": "A1210",
      "name": "Emard - Kunde Sports",
      "_links": {
        "self": {
          "href": "/merchants/A1210.json"
        }
      }
    }
  ],
  "merchants": [
    {
      "name": "Rohan LLC Shoes",
      "merchant_id": "A1201",
      "pricing": {
        "subsidy": 9,
        "discount_subsidy": 6,
        "discount_cutoff": 600
      },
      "transactions": [
        {
          "description": "Granite Keyboard",
          "date": "2019-02-20T15:06:32.153Z",
          "price": 1675
        },
        {
          "description": "Generic Wooden Bacon",
          "date": "2019-03-08T17:58:17.636Z",
          "price": 2540
        },
        {
          "description": "Pants",
          "date": "2019-03-11T11:48:04.699Z",
          "price": 1558
        },
        {
          "description": "Awesome Mouse",
          "date": "2019-03-10T14:57:47.403Z",
          "price": 2002
        },
        {
          "description": "Licensed Frozen Pizza",
          "date": "2019-03-10T21:40:31.226Z",
          "price": 2877
        },
        {
          "description": "Frozen Soap",
          "date": "2019-03-09T13:37:54.146Z",
          "price": 1351
        },
        {
          "description": "Incredible Wooden Pizza",
          "date": "2019-03-11T11:55:45.363Z",
          "price": 1213
        },
        {
          "description": "Handmade Fresh Soap",
          "date": "2019-03-14T07:28:17.278Z",
          "price": 1731
        },
        {
          "description": "Generic Plastic Pizza",
          "date": "2019-03-11T05:46:13.508Z",
          "price": 2927
        },
        {
          "description": "Metal Chair",
          "date": "2019-03-09T11:21:39.924Z",
          "price": 1852
        },
        {
          "description": "Ergonomic Keyboard",
          "date": "2019-03-11T15:54:34.370Z",
          "price": 2910
        },
        {
          "description": "Wooden Towels",
          "date": "2019-03-13T07:16:40.135Z",
          "price": 2956
        },
        {
          "description": "Tasty Pizza",
          "date": "2019-03-13T05:26:23.393Z",
          "price": 2397
        },
        {
          "description": "Handmade Granite Pants",
          "date": "2019-03-14T14:58:41.006Z",
          "price": 2725
        },
        {
          "description": "Rustic Wooden Chips",
          "date": "2019-03-13T08:24:49.560Z",
          "price": 281
        },
        {
          "description": "Refined Hat",
          "date": "2019-03-14T08:07:13.147Z",
          "price": 2035
        },
        {
          "description": "Refined Wooden Hat",
          "date": "2019-03-09T06:41:01.347Z",
          "price": 298
        },
        {
          "description": "Fantastic Granite Bacon",
          "date": "2019-03-10T22:07:28.690Z",
          "price": 2259
        },
        {
          "description": "Licensed Frozen Computer",
          "date": "2019-03-10T16:50:50.143Z",
          "price": 2472
        },
        {
          "description": "Fresh Fish",
          "date": "2019-03-14T08:10:33.475Z",
          "price": 1278
        },
        {
          "description": "Ergonomic Shirt",
          "date": "2019-03-13T13:52:43.413Z",
          "price": 1016.12
        },
        {
          "description": "Rustic Frozen Shoes",
          "date": "2019-03-10T02:23:17.919Z",
          "price": 896
        },
        {
          "description": "Concrete Pants",
          "date": "2019-03-11T18:04:32.563Z",
          "price": 1090
        },
        {
          "description": "Rubber Cheese",
          "date": "2019-03-09T06:13:49.600Z",
          "price": 2111.3
        },
        {
          "description": "Practical Rubber Towels",
          "date": "2019-02-23T03:56:48.917Z",
          "price": 2044
        },
        {
          "description": "Awesome Granite Soap",
          "date": "2019-02-26T21:50:27.959Z",
          "price": 789
        },
        {
          "description": "Rustic Keyboard",
          "date": "2019-03-07T21:16:04.350Z",
          "price": 2576
        },
        {
          "description": "Practical Fresh Bacon",
          "date": "2019-03-06T07:35:34.799Z",
          "price": 1173
        },
        {
          "description": "Handmade Steel Computer",
          "date": "2019-02-28T15:06:37.527Z",
          "price": 784
        },
        {
          "description": "Handcrafted Frozen Chair",
          "date": "2019-03-07T01:19:47.929Z",
          "price": 2707
        },
        {
          "description": "Gorgeous Granite Gloves",
          "date": "2019-02-27T19:15:09.357Z",
          "price": 2665
        },
        {
          "description": "Generic Keyboard",
          "date": "2019-02-27T16:04:43.112Z",
          "price": 2401
        },
        {
          "description": "Generic Concrete Table",
          "date": "2019-03-03T03:42:40.750Z",
          "price": 2714
        },
        {
          "description": "Practical Granite Bike",
          "date": "2019-03-01T19:46:07.356Z",
          "price": 1214
        },
        {
          "description": "Cotton Pizza",
          "date": "2019-03-01T12:41:03.311Z",
          "price": 2131
        },
        {
          "description": "Generic Plastic Table",
          "date": "2019-03-07T21:13:55.225Z",
          "price": 2545
        },
        {
          "description": "Fantastic Frozen Chicken",
          "date": "2019-03-03T23:45:01.351Z",
          "price": 1412
        },
        {
          "description": "Gorgeous Soft Soap",
          "date": "2019-03-08T10:14:39.889Z",
          "price": 2866.67
        },
        {
          "description": "Intelligent Rubber Keyboard",
          "date": "2019-03-05T08:07:09.670Z",
          "price": 254
        },
        {
          "description": "Cheese",
          "date": "2019-03-03T22:16:51.964Z",
          "price": 2283
        },
        {
          "description": "Rubber Bike",
          "date": "2019-03-01T02:45:50.745Z",
          "price": 1553
        },
        {
          "description": "Awesome Cotton Cheese",
          "date": "2019-03-03T22:33:48.799Z",
          "price": 1602
        },
        {
          "description": "Intelligent Wooden Mouse",
          "date": "2019-03-04T18:31:22.393Z",
          "price": 561
        },
        {
          "description": "Fantastic Cotton Ball",
          "date": "2019-03-05T20:34:18.066Z",
          "price": 1973
        },
        {
          "description": "Refined Fresh Soap",
          "date": "2019-03-02T01:28:00.622Z",
          "price": 878
        },
        {
          "description": "Small Cotton Ball",
          "date": "2019-03-07T10:19:36.761Z",
          "price": 1818
        },
        {
          "description": "Computer",
          "date": "2019-03-08T10:47:49.200Z",
          "price": 1177
        },
        {
          "description": "Fantastic Cheese",
          "date": "2019-03-06T09:28:15.384Z",
          "price": 2699
        },
        {
          "description": "Refined Wooden Chair",
          "date": "2019-02-27T21:41:24.494Z",
          "price": 1688
        },
        {
          "description": "Handmade Fresh Gloves",
          "date": "2019-03-01T09:37:20.611Z",
          "price": 1623
        },
        {
          "description": "Licensed Rubber Hat",
          "date": "2019-02-27T00:25:00.626Z",
          "price": 1147
        },
        {
          "description": "Unbranded Soft Salad",
          "date": "2019-03-08T15:58:46.089Z",
          "price": 2340
        },
        {
          "description": "Chips",
          "date": "2019-03-07T04:09:04.995Z",
          "price": 2291
        },
        {
          "description": "Fresh Chips",
          "date": "2019-03-02T04:50:01.524Z",
          "price": 654
        },
        {
          "description": "Unbranded Chair",
          "date": "2019-03-02T06:16:27.373Z",
          "price": 1583
        },
        {
          "description": "Ergonomic Fresh Ball",
          "date": "2019-03-01T01:50:18.856Z",
          "price": 2037.95
        },
        {
          "description": "Licensed Cotton Car",
          "date": "2019-02-23T20:04:50.996Z",
          "price": 387
        },
        {
          "description": "Concrete Chicken",
          "date": "2019-02-24T04:42:51.359Z",
          "price": 1896
        },
        {
          "description": "Rubber Chips",
          "date": "2019-02-24T12:23:13.559Z",
          "price": 2711
        },
        {
          "description": "Rubber Cheese",
          "date": "2019-02-25T23:05:40.292Z",
          "price": 540
        },
        {
          "description": "Tasty Granite Ball",
          "date": "2019-02-25T05:52:43.369Z",
          "price": 2307
        },
        {
          "description": "Frozen Towels",
          "date": "2019-02-24T21:02:35.807Z",
          "price": 1749
        },
        {
          "description": "Unbranded Steel Cheese",
          "date": "2019-02-25T01:19:50.194Z",
          "price": 1538
        },
        {
          "description": "Handcrafted Fresh Table",
          "date": "2019-02-24T20:13:31.687Z",
          "price": 2493
        },
        {
          "description": "Small Granite Soap",
          "date": "2019-02-26T15:49:27.295Z",
          "price": 1577
        },
        {
          "description": "Licensed Bike",
          "date": "2019-02-19T14:44:53.636Z",
          "price": 2080
        },
        {
          "description": "Tasty Sausages",
          "date": "2019-02-23T09:56:48.473Z",
          "price": 2207
        },
        {
          "description": "Refined Steel Hat",
          "date": "2019-02-23T17:00:45.732Z",
          "price": 2152
        },
        {
          "description": "Licensed Concrete Computer",
          "date": "2019-02-23T23:21:23.176Z",
          "price": 1589.01
        },
        {
          "description": "Handmade Soft Computer",
          "date": "2019-02-23T21:42:53.187Z",
          "price": 2194
        },
        {
          "description": "Small Cheese",
          "date": "2019-02-23T16:35:11.156Z",
          "price": 1575
        },
        {
          "description": "Generic Granite Towels",
          "date": "2019-02-22T16:39:53.655Z",
          "price": 727
        },
        {
          "description": "Licensed Soft Ball",
          "date": "2019-02-23T05:45:50.873Z",
          "price": 1989
        },
        {
          "description": "Frozen Computer",
          "date": "2019-02-17T11:23:21.551Z",
          "price": 998
        },
        {
          "description": "Sleek Soft Keyboard",
          "date": "2019-02-15T22:42:05.609Z",
          "price": 581
        },
        {
          "description": "Rustic Concrete Shirt",
          "date": "2019-02-18T15:10:55.252Z",
          "price": 507
        },
        {
          "description": "Tasty Granite Chicken",
          "date": "2019-02-22T05:37:32.437Z",
          "price": 931
        },
        {
          "description": "Granite Pants",
          "date": "2019-02-20T19:01:21.452Z",
          "price": 1182
        },
        {
          "description": "Licensed Frozen Pizza",
          "date": "2019-02-16T13:04:24.864Z",
          "price": 1316
        },
        {
          "description": "Gorgeous Fresh Computer",
          "date": "2019-02-17T14:37:20.223Z",
          "price": 867
        },
        {
          "description": "Sleek Wooden Car",
          "date": "2019-02-18T17:11:02.765Z",
          "price": 2133
        },
        {
          "description": "Soft Shirt",
          "date": "2019-02-21T19:12:31.249Z",
          "price": 2475
        },
        {
          "description": "Steel Sausages",
          "date": "2019-02-16T22:49:33.454Z",
          "price": 988
        },
        {
          "description": "Concrete Chicken",
          "date": "2019-02-16T11:18:23.952Z",
          "price": 1107
        },
        {
          "description": "Rustic Wooden Pizza",
          "date": "2019-02-18T14:50:51.719Z",
          "price": 1408
        },
        {
          "description": "Cotton Cheese",
          "date": "2019-02-16T07:39:41.684Z",
          "price": 518
        },
        {
          "description": "Chicken",
          "date": "2019-02-22T08:48:25.423Z",
          "price": 2171
        },
        {
          "description": "Fantastic Soft Keyboard",
          "date": "2019-02-17T02:45:19.633Z",
          "price": 2196
        },
        {
          "description": "Rustic Wooden Fish",
          "date": "2019-02-22T19:42:10.924Z",
          "price": 2856
        },
        {
          "description": "Refined Cotton Tuna",
          "date": "2019-02-22T00:13:29.475Z",
          "price": 1419
        },
        {
          "description": "Fantastic Shirt",
          "date": "2019-02-21T17:17:30.492Z",
          "price": 799
        },
        {
          "description": "Handcrafted Cotton Chips",
          "date": "2019-02-15T18:06:47.227Z",
          "price": 2280
        },
        {
          "description": "Cotton Bacon",
          "date": "2019-02-15T01:58:06.071Z",
          "price": 929
        },
        {
          "description": "Handcrafted Granite Table",
          "date": "2019-02-14T15:00:18.994Z",
          "price": 2737
        },
        {
          "description": "Rubber Shoes",
          "date": "2019-02-13T05:30:01.799Z",
          "price": 2284
        },
        {
          "description": "Rubber Chair",
          "date": "2019-02-13T00:07:49.431Z",
          "price": 452
        },
        {
          "description": "Fresh Chair",
          "date": "2019-02-12T18:48:37.382Z",
          "price": 1131
        }
      ]
    },

    {
      "name": "Carroll - Lang Grocery",
      "merchant_id": "A1202",
      "pricing": {
        "subsidy": 7,
        "discount_subsidy": 6,
        "discount_cutoff": 1100
      },
      "transactions": [
        {
          "description": "Soft Chips",
          "date": "2019-02-26T23:13:10.116Z",
          "price": 2923
        },
        {
          "description": "Awesome Frozen Chips",
          "date": "2019-03-01T01:50:59.653Z",
          "price": 1958
        },
        {
          "description": "Car",
          "date": "2019-03-04T04:40:00.058Z",
          "price": 566
        },
        {
          "description": "Cotton Pizza",
          "date": "2019-03-01T04:16:03.314Z",
          "price": 1294
        },
        {
          "description": "Refined Plastic Hat",
          "date": "2019-03-12T04:12:22.002Z",
          "price": 1515
        },
        {
          "description": "Awesome Chips",
          "date": "2019-03-07T16:49:54.592Z",
          "price": 2558
        },
        {
          "description": "Unbranded Granite Keyboard",
          "date": "2019-03-06T00:07:54.131Z",
          "price": 1256
        },
        {
          "description": "Ergonomic Mouse",
          "date": "2019-03-09T07:26:22.773Z",
          "price": 2074
        },
        {
          "description": "Incredible Bike",
          "date": "2019-03-14T03:00:07.561Z",
          "price": 2988
        },
        {
          "description": "Sleek Pizza",
          "date": "2019-03-05T22:53:14.411Z",
          "price": 1242
        },
        {
          "description": "Practical Chicken",
          "date": "2019-03-11T21:54:04.696Z",
          "price": 385
        },
        {
          "description": "Soft Salad",
          "date": "2019-03-01T13:12:10.034Z",
          "price": 2425
        },
        {
          "description": "Concrete Hat",
          "date": "2019-02-27T09:02:27.728Z",
          "price": 642
        },
        {
          "description": "Chicken",
          "date": "2019-02-26T07:55:52.112Z",
          "price": 2592
        },
        {
          "description": "Sleek Keyboard",
          "date": "2019-02-25T11:48:17.690Z",
          "price": 2832
        },
        {
          "description": "Sleek Fish",
          "date": "2019-02-25T01:26:05.218Z",
          "price": 487
        },
        {
          "description": "Tasty Table",
          "date": "2019-02-23T05:29:12.295Z",
          "price": 1956
        },
        {
          "description": "Gorgeous Hat",
          "date": "2019-02-21T05:43:38.335Z",
          "price": 1036
        },
        {
          "description": "Concrete Soap",
          "date": "2019-02-18T05:17:32.601Z",
          "price": 1746
        },
        {
          "description": "Fantastic Cotton Computer",
          "date": "2019-02-13T15:08:51.050Z",
          "price": 2782
        }
      ]
    },
    {
      "name": "Runolfsdottir Group Health",
      "merchant_id": "A1203",
      "pricing": {
        "subsidy": 6,
        "discount_subsidy": 5,
        "discount_cutoff": 300
      },
      "transactions": [
        {
          "description": "Unbranded Frozen Shoes",
          "date": "2019-02-16T04:23:29.761Z",
          "price": 501
        },
        {
          "description": "Gorgeous Shoes",
          "date": "2019-03-13T20:39:23.811Z",
          "price": 940
        },
        {
          "description": "Handcrafted Frozen Cheese",
          "date": "2019-03-14T07:45:47.731Z",
          "price": 2752
        },
        {
          "description": "Soft Pants",
          "date": "2019-02-23T22:31:12.262Z",
          "price": 1783
        },
        {
          "description": "Incredible Wooden Gloves",
          "date": "2019-03-07T01:47:42.134Z",
          "price": 1118
        },
        {
          "description": "Practical Rubber Towels",
          "date": "2019-03-13T07:08:57.915Z",
          "price": 298
        },
        {
          "description": "Soft Car",
          "date": "2019-03-10T02:00:14.211Z",
          "price": 1682
        },
        {
          "description": "Sleek Concrete Mouse",
          "date": "2019-03-10T14:47:36.852Z",
          "price": 1402.03
        },
        {
          "description": "Incredible Concrete Bike",
          "date": "2019-03-13T11:26:11.118Z",
          "price": 1857
        },
        {
          "description": "Refined Bike",
          "date": "2019-03-08T17:51:13.496Z",
          "price": 1340
        },
        {
          "description": "Intelligent Steel Pants",
          "date": "2019-03-07T22:34:46.087Z",
          "price": 1462
        },
        {
          "description": "Intelligent Soft Cheese",
          "date": "2019-03-10T11:18:51.983Z",
          "price": 2729
        },
        {
          "description": "Practical Rubber Chair",
          "date": "2019-03-08T13:42:28.591Z",
          "price": 837
        },
        {
          "description": "Intelligent Wooden Keyboard",
          "date": "2019-03-12T09:49:19.849Z",
          "price": 350
        },
        {
          "description": "Intelligent Tuna",
          "date": "2019-03-09T05:20:53.599Z",
          "price": 2016
        },
        {
          "description": "Awesome Cotton Cheese",
          "date": "2019-02-16T20:06:14.522Z",
          "price": 2806
        },
        {
          "description": "Practical Chicken",
          "date": "2019-03-01T13:03:50.232Z",
          "price": 2837
        },
        {
          "description": "Handcrafted Metal Computer",
          "date": "2019-03-03T10:09:49.131Z",
          "price": 884
        },
        {
          "description": "Generic Gloves",
          "date": "2019-03-05T15:14:01.094Z",
          "price": 673
        },
        {
          "description": "Table",
          "date": "2019-03-02T14:51:50.012Z",
          "price": 1383
        },
        {
          "description": "Handcrafted Sausages",
          "date": "2019-03-04T07:08:27.412Z",
          "price": 2020
        },
        {
          "description": "Handcrafted Fresh Tuna",
          "date": "2019-03-06T20:51:46.445Z",
          "price": 1629
        },
        {
          "description": "Sleek Rubber Hat",
          "date": "2019-03-03T07:47:52.410Z",
          "price": 2540
        },
        {
          "description": "Fantastic Frozen Salad",
          "date": "2019-03-02T09:43:52.688Z",
          "price": 1840
        },
        {
          "description": "Fantastic Car",
          "date": "2019-03-01T21:42:46.754Z",
          "price": 2782
        },
        {
          "description": "Incredible Fish",
          "date": "2019-03-02T12:21:10.222Z",
          "price": 724
        },
        {
          "description": "Rustic Soap",
          "date": "2019-02-19T05:29:51.249Z",
          "price": 2221
        },
        {
          "description": "Small Steel Gloves",
          "date": "2019-02-25T23:54:17.491Z",
          "price": 1150
        },
        {
          "description": "Handmade Steel Bacon",
          "date": "2019-02-27T04:30:57.143Z",
          "price": 2344
        },
        {
          "description": "Awesome Metal Chair",
          "date": "2019-02-28T11:46:20.214Z",
          "price": 2013
        },
        {
          "description": "Wooden Towels",
          "date": "2019-02-26T14:20:18.741Z",
          "price": 2214
        },
        {
          "description": "Licensed Frozen Keyboard",
          "date": "2019-02-27T18:02:27.501Z",
          "price": 2338
        },
        {
          "description": "Cotton Soap",
          "date": "2019-02-13T04:45:18.845Z",
          "price": 2197
        },
        {
          "description": "Sleek Keyboard",
          "date": "2019-02-25T11:04:20.902Z",
          "price": 2748
        },
        {
          "description": "Handcrafted Steel Computer",
          "date": "2019-02-25T13:44:46.517Z",
          "price": 2714
        },
        {
          "description": "Fantastic Pants",
          "date": "2019-02-14T12:30:16.682Z",
          "price": 1463
        },
        {
          "description": "Handmade Rubber Shirt",
          "date": "2019-02-20T13:53:53.801Z",
          "price": 1219
        },
        {
          "description": "Intelligent Fresh Pizza",
          "date": "2019-02-20T21:55:53.038Z",
          "price": 921
        },
        {
          "description": "Licensed Gloves",
          "date": "2019-02-21T08:00:43.722Z",
          "price": 1457
        },
        {
          "description": "Incredible Wooden Pizza",
          "date": "2019-02-23T20:02:09.343Z",
          "price": 2762
        },
        {
          "description": "Rustic Granite Bacon",
          "date": "2019-02-20T17:00:15.150Z",
          "price": 753
        },
        {
          "description": "Incredible Wooden Keyboard",
          "date": "2019-02-24T10:08:31.064Z",
          "price": 1614
        },
        {
          "description": "Rustic Wooden Computer",
          "date": "2019-02-20T12:43:19.750Z",
          "price": 2588
        },
        {
          "description": "Gorgeous Fresh Soap",
          "date": "2019-02-20T10:49:23.043Z",
          "price": 1664
        },
        {
          "description": "Refined Fresh Shoes",
          "date": "2019-02-20T02:51:10.641Z",
          "price": 2764
        },
        {
          "description": "Handmade Rubber Ball",
          "date": "2019-02-17T23:12:54.042Z",
          "price": 1376
        },
        {
          "description": "Sausages",
          "date": "2019-02-17T21:12:29.594Z",
          "price": 2739
        },
        {
          "description": "Ergonomic Frozen Shoes",
          "date": "2019-02-17T11:23:48.846Z",
          "price": 1788
        },
        {
          "description": "Soft Shoes",
          "date": "2019-02-16T07:35:21.259Z",
          "price": 1966
        },
        {
          "description": "Refined Soft Computer",
          "date": "2019-02-15T12:33:17.163Z",
          "price": 2207
        },
        {
          "description": "Mouse",
          "date": "2019-02-14T04:43:51.461Z",
          "price": 1468
        }
      ]
    },
    {
      "name": "Bartell, Walter and Koch Toys",
      "merchant_id": "A1204",
      "pricing": {
        "subsidy": 11,
        "discount_subsidy": 9,
        "discount_cutoff": 800
      },
      "transactions": [
        {
          "description": "Sleek Keyboard",
          "date": "2019-02-20T14:08:20.937Z",
          "price": 1351
        },
        {
          "description": "Practical Fresh Sausages",
          "date": "2019-03-01T12:55:40.016Z",
          "price": 1009
        },
        {
          "description": "Shirt",
          "date": "2019-03-13T23:08:31.744Z",
          "price": 2765
        },
        {
          "description": "Tasty Mouse",
          "date": "2019-03-04T23:04:07.493Z",
          "price": 1758
        },
        {
          "description": "Incredible Granite Cheese",
          "date": "2019-03-03T13:14:57.014Z",
          "price": 1627
        },
        {
          "description": "Fantastic Metal Computer",
          "date": "2019-03-09T21:16:34.022Z",
          "price": 951
        },
        {
          "description": "Fantastic Rubber Soap",
          "date": "2019-03-14T11:35:33.998Z",
          "price": 521
        },
        {
          "description": "Handcrafted Cheese",
          "date": "2019-03-02T04:40:31.758Z",
          "price": 877
        },
        {
          "description": "Concrete Bike",
          "date": "2019-03-06T13:07:23.431Z",
          "price": 1578
        },
        {
          "description": "Wooden Chicken",
          "date": "2019-03-14T13:56:03.689Z",
          "price": 2703
        },
        {
          "description": "Granite Mouse",
          "date": "2019-03-10T11:39:10.787Z",
          "price": 2473
        },
        {
          "description": "Intelligent Bike",
          "date": "2019-03-13T21:33:48.829Z",
          "price": 681
        },
        {
          "description": "Incredible Granite Chicken",
          "date": "2019-03-04T21:17:20.313Z",
          "price": 1064
        },
        {
          "description": "Handmade Plastic Towels",
          "date": "2019-03-08T20:37:00.870Z",
          "price": 251
        },
        {
          "description": "Shirt",
          "date": "2019-03-11T23:22:24.088Z",
          "price": 1202
        },
        {
          "description": "Incredible Mouse",
          "date": "2019-03-13T06:20:22.903Z",
          "price": 991
        },
        {
          "description": "Ergonomic Cheese",
          "date": "2019-03-09T01:17:20.871Z",
          "price": 923
        },
        {
          "description": "Sleek Metal Soap",
          "date": "2019-03-12T11:45:27.403Z",
          "price": 1228
        },
        {
          "description": "Handcrafted Fresh Tuna",
          "date": "2019-03-11T22:04:35.377Z",
          "price": 328
        },
        {
          "description": "Rustic Cotton Shirt",
          "date": "2019-03-13T08:58:00.997Z",
          "price": 2253
        },
        {
          "description": "Frozen Computer",
          "date": "2019-03-13T00:20:55.834Z",
          "price": 1810
        },
        {
          "description": "Refined Rubber Mouse",
          "date": "2019-03-14T03:43:21.483Z",
          "price": 490
        },
        {
          "description": "Generic Frozen Bacon",
          "date": "2019-03-10T17:53:18.188Z",
          "price": 1124
        },
        {
          "description": "Intelligent Keyboard",
          "date": "2019-03-04T02:15:26.204Z",
          "price": 1733.71
        },
        {
          "description": "Gorgeous Granite Hat",
          "date": "2019-03-09T21:27:15.442Z",
          "price": 2566
        },
        {
          "description": "Sleek Frozen Computer",
          "date": "2019-03-05T22:51:32.844Z",
          "price": 2966
        },
        {
          "description": "Sleek Table",
          "date": "2019-03-11T23:28:43.165Z",
          "price": 2318
        },
        {
          "description": "Ergonomic Fish",
          "date": "2019-03-03T22:22:27.928Z",
          "price": 1940.92
        },
        {
          "description": "Rustic Frozen Cheese",
          "date": "2019-03-03T22:25:52.301Z",
          "price": 2782
        },
        {
          "description": "Practical Fresh Cheese",
          "date": "2019-03-06T12:50:12.364Z",
          "price": 1280
        },
        {
          "description": "Shirt",
          "date": "2019-02-23T02:58:08.257Z",
          "price": 1859
        },
        {
          "description": "Granite Ball",
          "date": "2019-02-23T00:54:09.063Z",
          "price": 2814
        },
        {
          "description": "Licensed Ball",
          "date": "2019-02-26T04:08:08.563Z",
          "price": 1850
        },
        {
          "description": "Generic Soft Car",
          "date": "2019-03-01T01:32:34.391Z",
          "price": 2182
        },
        {
          "description": "Frozen Bacon",
          "date": "2019-02-25T20:49:19.846Z",
          "price": 2173.87
        },
        {
          "description": "Handcrafted Salad",
          "date": "2019-02-25T21:13:07.377Z",
          "price": 1790
        },
        {
          "description": "Fantastic Wooden Towels",
          "date": "2019-02-28T00:06:29.045Z",
          "price": 1792
        },
        {
          "description": "Handcrafted Salad",
          "date": "2019-02-28T03:08:26.460Z",
          "price": 1373
        },
        {
          "description": "Handcrafted Fresh Keyboard",
          "date": "2019-02-25T19:02:45.128Z",
          "price": 1943
        },
        {
          "description": "Handcrafted Plastic Cheese",
          "date": "2019-02-28T02:41:50.887Z",
          "price": 2073
        },
        {
          "description": "Sleek Plastic Towels",
          "date": "2019-02-28T17:03:47.247Z",
          "price": 886
        },
        {
          "description": "Steel Tuna",
          "date": "2019-02-23T13:56:36.864Z",
          "price": 2477
        },
        {
          "description": "Fantastic Frozen Computer",
          "date": "2019-02-23T04:32:24.066Z",
          "price": 1305
        },
        {
          "description": "Concrete Tuna",
          "date": "2019-02-28T12:55:58.592Z",
          "price": 427
        },
        {
          "description": "Gorgeous Computer",
          "date": "2019-02-28T00:11:10.681Z",
          "price": 599
        },
        {
          "description": "Rubber Towels",
          "date": "2019-02-23T12:35:55.168Z",
          "price": 1270
        },
        {
          "description": "Fantastic Wooden Mouse",
          "date": "2019-02-25T14:04:20.585Z",
          "price": 2403
        },
        {
          "description": "Refined Metal Chips",
          "date": "2019-02-23T22:12:25.878Z",
          "price": 2228
        },
        {
          "description": "Granite Shoes",
          "date": "2019-02-23T16:47:03.661Z",
          "price": 627
        },
        {
          "description": "Intelligent Frozen Mouse",
          "date": "2019-02-27T03:47:34.259Z",
          "price": 1369
        },
        {
          "description": "Generic Concrete Salad",
          "date": "2019-02-12T21:26:36.506Z",
          "price": 2581
        },
        {
          "description": "Generic Granite Hat",
          "date": "2019-02-21T16:58:26.625Z",
          "price": 633
        },
        {
          "description": "Fantastic Plastic Hat",
          "date": "2019-02-22T04:52:38.843Z",
          "price": 2858
        },
        {
          "description": "Concrete Car",
          "date": "2019-02-22T06:28:12.094Z",
          "price": 2376
        },
        {
          "description": "Generic Fresh Hat",
          "date": "2019-02-22T10:29:04.107Z",
          "price": 1655
        },
        {
          "description": "Steel Mouse",
          "date": "2019-02-15T16:46:55.287Z",
          "price": 620
        },
        {
          "description": "Bike",
          "date": "2019-02-20T12:12:30.486Z",
          "price": 2316
        },
        {
          "description": "Fresh Mouse",
          "date": "2019-02-20T18:24:46.792Z",
          "price": 424
        },
        {
          "description": "Ergonomic Cotton Car",
          "date": "2019-02-14T13:24:04.005Z",
          "price": 2392
        },
        {
          "description": "Soft Keyboard",
          "date": "2019-02-20T08:32:00.786Z",
          "price": 1524
        },
        {
          "description": "Awesome Plastic Fish",
          "date": "2019-02-13T12:03:25.794Z",
          "price": 2344
        },
        {
          "description": "Small Gloves",
          "date": "2019-02-20T03:27:55.602Z",
          "price": 977
        },
        {
          "description": "Generic Towels",
          "date": "2019-02-19T12:43:31.031Z",
          "price": 863
        },
        {
          "description": "Fantastic Granite Bike",
          "date": "2019-02-18T15:32:27.783Z",
          "price": 2008
        },
        {
          "description": "Tasty Table",
          "date": "2019-02-18T11:09:44.561Z",
          "price": 2069
        },
        {
          "description": "Awesome Cotton Gloves",
          "date": "2019-02-17T12:43:15.129Z",
          "price": 2216
        },
        {
          "description": "Sausages",
          "date": "2019-02-15T15:23:20.922Z",
          "price": 486
        },
        {
          "description": "Incredible Wooden Soap",
          "date": "2019-02-15T12:16:41.283Z",
          "price": 2524
        },
        {
          "description": "Practical Cotton Car",
          "date": "2019-02-14T22:11:25.846Z",
          "price": 1779
        },
        {
          "description": "Tasty Cotton Bacon",
          "date": "2019-02-14T00:39:31.471Z",
          "price": 876
        },
        {
          "description": "Refined Fresh Mouse",
          "date": "2019-02-12T21:41:33.255Z",
          "price": 933
        }
      ]
    },
    {
      "name": "Blick LLC and Sons",
      "merchant_id": "A1205",
      "pricing": {
        "subsidy": 8,
        "discount_subsidy": 4,
        "discount_cutoff": 500
      },
      "transactions": [
        {
          "description": "Awesome Steel Fish",
          "date": "2019-02-26T10:15:56.062Z",
          "price": 273
        },
        {
          "description": "Metal Keyboard",
          "date": "2019-03-08T20:58:42.577Z",
          "price": 2210
        },
        {
          "description": "Handcrafted Cotton Ball",
          "date": "2019-03-09T22:02:14.644Z",
          "price": 558
        },
        {
          "description": "Handmade Plastic Bacon",
          "date": "2019-03-11T10:58:40.496Z",
          "price": 2423
        },
        {
          "description": "Concrete Computer",
          "date": "2019-02-24T05:40:33.285Z",
          "price": 2986.31
        },
        {
          "description": "Cotton Ball",
          "date": "2019-03-03T18:36:18.720Z",
          "price": 734
        },
        {
          "description": "Awesome Shirt",
          "date": "2019-03-03T18:49:58.843Z",
          "price": 1794
        },
        {
          "description": "Sleek Soft Keyboard",
          "date": "2019-03-05T05:48:16.232Z",
          "price": 1032
        },
        {
          "description": "Cotton Bike",
          "date": "2019-03-07T11:42:48.329Z",
          "price": 332
        },
        {
          "description": "Sleek Cheese",
          "date": "2019-03-06T08:48:00.332Z",
          "price": 1034
        },
        {
          "description": "Handcrafted Concrete Computer",
          "date": "2019-03-07T09:34:28.372Z",
          "price": 1735
        },
        {
          "description": "Incredible Soft Bacon",
          "date": "2019-02-24T22:33:17.000Z",
          "price": 1260
        },
        {
          "description": "Fresh Mouse",
          "date": "2019-02-24T05:25:15.094Z",
          "price": 2378
        },
        {
          "description": "Intelligent Hat",
          "date": "2019-02-19T08:44:42.537Z",
          "price": 1980
        },
        {
          "description": "Car",
          "date": "2019-02-15T16:57:39.462Z",
          "price": 2769
        }
      ]
    },
    {
      "name": "Fisher - Fay Industrial",
      "merchant_id": "A1206",
      "pricing": {
        "subsidy": 6,
        "discount_subsidy": 3,
        "discount_cutoff": 300
      },
      "transactions": [
        {
          "description": "Ergonomic Granite Mouse",
          "date": "2019-02-19T11:43:51.219Z",
          "price": 826
        },
        {
          "description": "Soft Gloves",
          "date": "2019-03-07T00:55:54.175Z",
          "price": 2659
        },
        {
          "description": "Handcrafted Metal Table",
          "date": "2019-03-13T22:37:01.815Z",
          "price": 790
        },
        {
          "description": "Fantastic Soft Gloves",
          "date": "2019-03-10T08:49:29.176Z",
          "price": 598.2
        },
        {
          "description": "Plastic Cheese",
          "date": "2019-03-11T17:04:41.757Z",
          "price": 586
        },
        {
          "description": "Computer",
          "date": "2019-03-10T14:48:27.427Z",
          "price": 1740
        },
        {
          "description": "Bike",
          "date": "2019-03-11T09:46:56.224Z",
          "price": 1391
        },
        {
          "description": "Refined Tuna",
          "date": "2019-03-10T03:21:47.300Z",
          "price": 744
        },
        {
          "description": "Unbranded Ball",
          "date": "2019-03-12T10:27:18.721Z",
          "price": 1490
        },
        {
          "description": "Sleek Fish",
          "date": "2019-03-13T05:45:17.819Z",
          "price": 1213
        },
        {
          "description": "Frozen Pizza",
          "date": "2019-02-28T07:58:38.028Z",
          "price": 1816
        },
        {
          "description": "Practical Cotton Mouse",
          "date": "2019-03-05T14:04:25.561Z",
          "price": 962
        },
        {
          "description": "Steel Gloves",
          "date": "2019-03-05T16:59:30.432Z",
          "price": 1582
        },
        {
          "description": "Small Salad",
          "date": "2019-03-05T18:48:48.401Z",
          "price": 658
        },
        {
          "description": "Chicken",
          "date": "2019-03-06T04:22:05.206Z",
          "price": 1348
        },
        {
          "description": "Incredible Shoes",
          "date": "2019-03-06T18:52:25.571Z",
          "price": 1428
        },
        {
          "description": "Rustic Tuna",
          "date": "2019-02-28T12:38:06.631Z",
          "price": 838
        },
        {
          "description": "Ergonomic Bacon",
          "date": "2019-03-04T04:38:46.878Z",
          "price": 1582
        },
        {
          "description": "Ergonomic Steel Table",
          "date": "2019-03-04T09:06:16.190Z",
          "price": 1135
        },
        {
          "description": "Handmade Chips",
          "date": "2019-03-05T12:35:26.624Z",
          "price": 2315
        },
        {
          "description": "Fresh Sausages",
          "date": "2019-02-24T14:51:38.634Z",
          "price": 1670
        },
        {
          "description": "Practical Shirt",
          "date": "2019-02-14T06:34:53.786Z",
          "price": 2913
        },
        {
          "description": "Rustic Wooden Fish",
          "date": "2019-02-26T07:59:38.423Z",
          "price": 427
        },
        {
          "description": "Generic Wooden Cheese",
          "date": "2019-02-27T07:10:10.323Z",
          "price": 429.42
        },
        {
          "description": "Ergonomic Plastic Hat",
          "date": "2019-02-23T11:47:36.313Z",
          "price": 2274
        },
        {
          "description": "Awesome Plastic Pants",
          "date": "2019-02-21T07:29:48.147Z",
          "price": 299
        },
        {
          "description": "Awesome Concrete Pizza",
          "date": "2019-03-02T11:03:19.044Z",
          "price": 2814
        },
        {
          "description": "Computer",
          "date": "2019-02-25T03:03:19.025Z",
          "price": 1495
        },
        {
          "description": "Incredible Soap",
          "date": "2019-02-15T09:57:17.822Z",
          "price": 1568
        },
        {
          "description": "Awesome Cotton Chicken",
          "date": "2019-02-18T03:42:53.488Z",
          "price": 1887
        },
        {
          "description": "Small Fresh Fish",
          "date": "2019-03-03T18:46:10.537Z",
          "price": 2351
        },
        {
          "description": "Rustic Rubber Salad",
          "date": "2019-02-13T18:19:38.716Z",
          "price": 2008
        },
        {
          "description": "Frozen Chair",
          "date": "2019-02-13T02:33:21.934Z",
          "price": 2137
        }
      ]
    },
    {
      "name": "Fadel - Braun Industrial",
      "merchant_id": "A1207",
      "pricing": {
        "subsidy": 10,
        "discount_subsidy": 6,
        "discount_cutoff": 1000
      },
      "transactions": [
        {
          "description": "Fantastic Steel Shirt",
          "date": "2019-02-17T08:53:26.763Z",
          "price": 1900
        },
        {
          "description": "Generic Frozen Shoes",
          "date": "2019-03-02T00:10:24.839Z",
          "price": 2243
        },
        {
          "description": "Handcrafted Rubber Chair",
          "date": "2019-03-13T21:26:19.434Z",
          "price": 1752
        },
        {
          "description": "Handmade Steel Fish",
          "date": "2019-03-06T15:37:25.873Z",
          "price": 1576
        },
        {
          "description": "Plastic Salad",
          "date": "2019-03-05T01:52:16.767Z",
          "price": 491
        },
        {
          "description": "Awesome Pants",
          "date": "2019-03-05T03:16:15.526Z",
          "price": 1151
        },
        {
          "description": "Intelligent Concrete Fish",
          "date": "2019-03-02T00:53:25.910Z",
          "price": 2392
        },
        {
          "description": "Handcrafted Wooden Chair",
          "date": "2019-03-07T06:23:09.821Z",
          "price": 1198
        },
        {
          "description": "Incredible Metal Table",
          "date": "2019-03-14T15:57:38.423Z",
          "price": 1285
        },
        {
          "description": "Steel Chips",
          "date": "2019-03-04T10:21:34.384Z",
          "price": 2562.95
        },
        {
          "description": "Concrete Mouse",
          "date": "2019-03-10T21:42:45.260Z",
          "price": 678
        },
        {
          "description": "Frozen Fish",
          "date": "2019-03-03T16:51:39.601Z",
          "price": 2661
        },
        {
          "description": "Handmade Steel Mouse",
          "date": "2019-03-04T07:21:03.380Z",
          "price": 1679
        },
        {
          "description": "Hat",
          "date": "2019-03-13T03:47:28.312Z",
          "price": 2883
        },
        {
          "description": "Practical Soft Hat",
          "date": "2019-03-06T23:38:22.458Z",
          "price": 1784
        },
        {
          "description": "Intelligent Granite Chips",
          "date": "2019-03-09T00:11:00.395Z",
          "price": 2649
        },
        {
          "description": "Fantastic Rubber Cheese",
          "date": "2019-03-07T01:53:32.549Z",
          "price": 1910
        },
        {
          "description": "Concrete Towels",
          "date": "2019-03-06T10:09:28.658Z",
          "price": 930
        },
        {
          "description": "Awesome Granite Tuna",
          "date": "2019-03-05T05:03:54.700Z",
          "price": 2303
        },
        {
          "description": "Cotton Bike",
          "date": "2019-03-02T18:27:32.195Z",
          "price": 2033
        },
        {
          "description": "Rustic Shoes",
          "date": "2019-03-06T19:05:41.728Z",
          "price": 2997
        },
        {
          "description": "Ergonomic Fresh Computer",
          "date": "2019-03-14T13:15:33.534Z",
          "price": 2869
        },
        {
          "description": "Awesome Metal Table",
          "date": "2019-03-06T04:20:23.640Z",
          "price": 1994
        },
        {
          "description": "Intelligent Metal Soap",
          "date": "2019-03-08T22:57:19.379Z",
          "price": 2194
        },
        {
          "description": "Awesome Metal Ball",
          "date": "2019-03-02T04:52:47.700Z",
          "price": 1751
        },
        {
          "description": "Incredible Rubber Computer",
          "date": "2019-03-09T20:13:36.837Z",
          "price": 2813
        },
        {
          "description": "Intelligent Pizza",
          "date": "2019-03-13T22:54:15.912Z",
          "price": 319
        },
        {
          "description": "Licensed Frozen Car",
          "date": "2019-03-03T09:54:09.734Z",
          "price": 1866
        },
        {
          "description": "Tasty Rubber Tuna",
          "date": "2019-03-04T03:28:53.514Z",
          "price": 849
        },
        {
          "description": "Fresh Sausages",
          "date": "2019-03-10T02:00:56.632Z",
          "price": 2476
        },
        {
          "description": "Ergonomic Steel Car",
          "date": "2019-03-12T22:23:03.845Z",
          "price": 2804
        },
        {
          "description": "Plastic Soap",
          "date": "2019-03-04T17:39:12.379Z",
          "price": 827
        },
        {
          "description": "Handmade Bike",
          "date": "2019-03-04T02:35:26.016Z",
          "price": 1216
        },
        {
          "description": "Concrete Computer",
          "date": "2019-03-03T06:37:57.002Z",
          "price": 709
        },
        {
          "description": "Chicken",
          "date": "2019-03-12T22:15:08.419Z",
          "price": 2811
        },
        {
          "description": "Tasty Concrete Chips",
          "date": "2019-03-08T13:53:43.507Z",
          "price": 2166
        },
        {
          "description": "Gorgeous Concrete Computer",
          "date": "2019-02-13T03:32:21.007Z",
          "price": 520
        },
        {
          "description": "Wooden Ball",
          "date": "2019-02-24T10:15:11.536Z",
          "price": 2026
        },
        {
          "description": "Tasty Wooden Chicken",
          "date": "2019-03-01T18:54:57.183Z",
          "price": 2014
        },
        {
          "description": "Fantastic Cotton Bike",
          "date": "2019-02-27T18:29:39.854Z",
          "price": 1056
        },
        {
          "description": "Gorgeous Cotton Car",
          "date": "2019-03-01T11:37:33.088Z",
          "price": 526
        },
        {
          "description": "Tasty Steel Computer",
          "date": "2019-03-01T22:43:13.049Z",
          "price": 1481.37
        },
        {
          "description": "Small Soap",
          "date": "2019-02-26T06:29:42.427Z",
          "price": 2954
        },
        {
          "description": "Plastic Soap",
          "date": "2019-03-01T15:20:27.219Z",
          "price": 1642
        },
        {
          "description": "Fresh Soap",
          "date": "2019-02-26T05:00:36.483Z",
          "price": 2165
        },
        {
          "description": "Ergonomic Steel Shoes",
          "date": "2019-03-01T20:35:39.653Z",
          "price": 1156
        },
        {
          "description": "Handcrafted Chicken",
          "date": "2019-02-28T07:42:23.100Z",
          "price": 1861
        },
        {
          "description": "Practical Soft Table",
          "date": "2019-02-25T04:05:12.454Z",
          "price": 430
        },
        {
          "description": "Small Concrete Table",
          "date": "2019-03-01T06:22:59.390Z",
          "price": 347
        },
        {
          "description": "Sleek Rubber Sausages",
          "date": "2019-02-25T23:31:18.644Z",
          "price": 1350
        },
        {
          "description": "Licensed Metal Car",
          "date": "2019-02-25T05:30:34.877Z",
          "price": 1505
        },
        {
          "description": "Gorgeous Metal Gloves",
          "date": "2019-02-24T13:23:33.334Z",
          "price": 917
        },
        {
          "description": "Refined Cotton Fish",
          "date": "2019-02-28T15:03:47.328Z",
          "price": 2094
        },
        {
          "description": "Practical Pants",
          "date": "2019-02-26T02:20:38.169Z",
          "price": 1352
        },
        {
          "description": "Generic Metal Chips",
          "date": "2019-02-21T04:24:14.806Z",
          "price": 670
        },
        {
          "description": "Generic Plastic Cheese",
          "date": "2019-02-18T15:40:51.756Z",
          "price": 1378
        },
        {
          "description": "Sleek Soft Pizza",
          "date": "2019-02-22T19:51:25.446Z",
          "price": 2936
        },
        {
          "description": "Unbranded Cotton Salad",
          "date": "2019-02-19T23:39:09.251Z",
          "price": 1413
        },
        {
          "description": "Handcrafted Fresh Bacon",
          "date": "2019-02-18T17:35:38.096Z",
          "price": 294
        },
        {
          "description": "Rustic Frozen Gloves",
          "date": "2019-02-19T07:58:10.978Z",
          "price": 2323
        },
        {
          "description": "Steel Gloves",
          "date": "2019-02-22T00:23:38.732Z",
          "price": 2778
        },
        {
          "description": "Tuna",
          "date": "2019-02-23T05:10:54.840Z",
          "price": 2041
        },
        {
          "description": "Fantastic Fresh Salad",
          "date": "2019-02-20T04:48:22.570Z",
          "price": 1811
        },
        {
          "description": "Intelligent Frozen Tuna",
          "date": "2019-02-19T08:55:23.168Z",
          "price": 2565
        },
        {
          "description": "Fish",
          "date": "2019-02-19T19:55:36.117Z",
          "price": 331
        },
        {
          "description": "Intelligent Plastic Pizza",
          "date": "2019-02-23T16:56:54.524Z",
          "price": 2574.01
        },
        {
          "description": "Small Wooden Table",
          "date": "2019-02-21T15:53:25.270Z",
          "price": 2802
        },
        {
          "description": "Shoes",
          "date": "2019-02-21T04:14:40.907Z",
          "price": 341
        },
        {
          "description": "Cheese",
          "date": "2019-02-19T11:41:29.346Z",
          "price": 2212
        },
        {
          "description": "Practical Cotton Keyboard",
          "date": "2019-02-21T17:02:26.629Z",
          "price": 1074
        },
        {
          "description": "Refined Bike",
          "date": "2019-02-24T09:03:21.886Z",
          "price": 1291
        },
        {
          "description": "Ergonomic Metal Sausages",
          "date": "2019-02-23T15:45:12.457Z",
          "price": 1517
        },
        {
          "description": "Tasty Rubber Hat",
          "date": "2019-02-20T11:05:48.842Z",
          "price": 422
        },
        {
          "description": "Small Shoes",
          "date": "2019-02-18T09:25:19.109Z",
          "price": 1449
        },
        {
          "description": "Handmade Fresh Shirt",
          "date": "2019-02-18T01:26:07.868Z",
          "price": 2792
        },
        {
          "description": "Refined Chair",
          "date": "2019-02-12T23:55:07.395Z",
          "price": 2143.23
        },
        {
          "description": "Sleek Frozen Shoes",
          "date": "2019-02-15T03:33:28.859Z",
          "price": 1608
        },
        {
          "description": "Refined Plastic Car",
          "date": "2019-02-15T14:40:58.925Z",
          "price": 2681
        },
        {
          "description": "Table",
          "date": "2019-02-17T08:57:19.767Z",
          "price": 434
        },
        {
          "description": "Concrete Shoes",
          "date": "2019-02-15T13:02:02.124Z",
          "price": 945
        },
        {
          "description": "Rustic Cotton Keyboard",
          "date": "2019-02-15T04:27:22.211Z",
          "price": 476
        },
        {
          "description": "Licensed Rubber Table",
          "date": "2019-02-17T01:12:06.590Z",
          "price": 1828
        },
        {
          "description": "Rustic Concrete Car",
          "date": "2019-02-17T14:26:18.838Z",
          "price": 1745
        },
        {
          "description": "Licensed Cotton Mouse",
          "date": "2019-02-13T02:25:54.194Z",
          "price": 1725
        },
        {
          "description": "Gorgeous Soft Shirt",
          "date": "2019-02-14T21:53:58.252Z",
          "price": 1028
        },
        {
          "description": "Generic Frozen Shirt",
          "date": "2019-02-15T00:01:48.799Z",
          "price": 2410
        },
        {
          "description": "Cotton Hat",
          "date": "2019-02-15T02:46:51.499Z",
          "price": 318
        },
        {
          "description": "Gorgeous Tuna",
          "date": "2019-02-14T21:20:01.290Z",
          "price": 2563
        },
        {
          "description": "Ergonomic Frozen Tuna",
          "date": "2019-02-14T14:54:37.733Z",
          "price": 2346
        },
        {
          "description": "Generic Ball",
          "date": "2019-02-14T09:30:56.005Z",
          "price": 2596
        },
        {
          "description": "Small Rubber Ball",
          "date": "2019-02-14T02:49:49.688Z",
          "price": 262
        },
        {
          "description": "Refined Frozen Car",
          "date": "2019-02-13T16:43:53.421Z",
          "price": 2908
        },
        {
          "description": "Granite Tuna",
          "date": "2019-02-13T15:39:18.989Z",
          "price": 2175
        },
        {
          "description": "Awesome Fresh Tuna",
          "date": "2019-02-13T13:27:27.009Z",
          "price": 2115.05
        },
        {
          "description": "Keyboard",
          "date": "2019-02-13T00:14:12.219Z",
          "price": 1090
        },
        {
          "description": "Frozen Shoes",
          "date": "2019-02-12T20:16:22.954Z",
          "price": 944
        }
      ]
    },
    {
      "name": "Hermiston - Murray Group",
      "merchant_id": "A1208",
      "pricing": {
        "subsidy": 6,
        "discount_subsidy": 5,
        "discount_cutoff": 1000
      },
      "transactions": [
        {
          "description": "Rustic Chicken",
          "date": "2019-03-08T18:25:10.944Z",
          "price": 294
        },
        {
          "description": "Sleek Computer",
          "date": "2019-03-02T12:23:44.438Z",
          "price": 2104
        },
        {
          "description": "Unbranded Frozen Ball",
          "date": "2019-03-12T07:26:45.066Z",
          "price": 2718
        },
        {
          "description": "Hat",
          "date": "2019-03-11T19:53:16.001Z",
          "price": 2719
        },
        {
          "description": "Rubber Shirt",
          "date": "2019-03-08T04:42:39.874Z",
          "price": 2288
        },
        {
          "description": "Practical Pizza",
          "date": "2019-02-26T15:48:22.683Z",
          "price": 622
        },
        {
          "description": "Steel Gloves",
          "date": "2019-02-25T02:12:46.286Z",
          "price": 1850
        },
        {
          "description": "Soft Hat",
          "date": "2019-02-23T14:34:20.662Z",
          "price": 2026
        },
        {
          "description": "Towels",
          "date": "2019-02-21T16:26:51.108Z",
          "price": 1139
        },
        {
          "description": "Gorgeous Cotton Hat",
          "date": "2019-02-20T19:49:11.099Z",
          "price": 1889
        },
        {
          "description": "Small Metal Bacon",
          "date": "2019-02-20T09:37:49.142Z",
          "price": 1571
        }
      ]
    },
    {
      "name": "White - Robel Grocery",
      "merchant_id": "A1209",
      "pricing": {
        "subsidy": 9,
        "discount_subsidy": 7,
        "discount_cutoff": 1200
      },
      "transactions": [
        {
          "description": "Licensed Cotton Chicken",
          "date": "2019-02-15T05:23:13.154Z",
          "price": 2578
        },
        {
          "description": "Awesome Soft Mouse",
          "date": "2019-03-09T16:23:41.288Z",
          "price": 966
        },
        {
          "description": "Fantastic Keyboard",
          "date": "2019-03-12T09:08:50.964Z",
          "price": 2803
        },
        {
          "description": "Sleek Cotton Bike",
          "date": "2019-03-12T06:00:07.163Z",
          "price": 2306
        },
        {
          "description": "Generic Bike",
          "date": "2019-03-10T21:45:39.672Z",
          "price": 722
        },
        {
          "description": "Ergonomic Frozen Cheese",
          "date": "2019-03-10T13:14:25.772Z",
          "price": 1521
        },
        {
          "description": "Table",
          "date": "2019-03-12T23:58:08.293Z",
          "price": 919
        },
        {
          "description": "Intelligent Metal Chair",
          "date": "2019-03-10T20:14:42.487Z",
          "price": 1114
        },
        {
          "description": "Fresh Gloves",
          "date": "2019-03-10T06:20:29.116Z",
          "price": 2769
        },
        {
          "description": "Soft Towels",
          "date": "2019-03-10T04:51:41.599Z",
          "price": 1701
        },
        {
          "description": "Cotton Gloves",
          "date": "2019-03-13T12:40:35.363Z",
          "price": 1390
        },
        {
          "description": "Towels",
          "date": "2019-03-12T01:35:09.695Z",
          "price": 2225
        },
        {
          "description": "Fantastic Hat",
          "date": "2019-03-09T20:36:14.134Z",
          "price": 2810
        },
        {
          "description": "Handmade Cotton Cheese",
          "date": "2019-03-13T18:55:25.441Z",
          "price": 1017
        },
        {
          "description": "Licensed Soap",
          "date": "2019-03-07T08:03:21.925Z",
          "price": 787
        },
        {
          "description": "Handcrafted Metal Tuna",
          "date": "2019-03-06T14:56:55.005Z",
          "price": 1667
        },
        {
          "description": "Sleek Computer",
          "date": "2019-03-09T15:59:46.574Z",
          "price": 2826
        },
        {
          "description": "Incredible Fresh Hat",
          "date": "2019-03-07T18:39:30.325Z",
          "price": 2146
        },
        {
          "description": "Practical Soft Chair",
          "date": "2019-03-09T00:36:34.937Z",
          "price": 1194
        },
        {
          "description": "Intelligent Sausages",
          "date": "2019-03-07T00:28:10.305Z",
          "price": 1338
        },
        {
          "description": "Intelligent Frozen Table",
          "date": "2019-03-09T12:52:18.037Z",
          "price": 1559
        },
        {
          "description": "Awesome Concrete Table",
          "date": "2019-03-07T18:37:48.316Z",
          "price": 671
        },
        {
          "description": "Unbranded Frozen Cheese",
          "date": "2019-02-14T06:50:05.952Z",
          "price": 1023
        },
        {
          "description": "Sausages",
          "date": "2019-02-25T05:58:30.575Z",
          "price": 288
        },
        {
          "description": "Generic Granite Pizza",
          "date": "2019-03-02T01:49:20.498Z",
          "price": 2649
        },
        {
          "description": "Handmade Cheese",
          "date": "2019-03-06T08:01:29.601Z",
          "price": 2116
        },
        {
          "description": "Generic Frozen Tuna",
          "date": "2019-03-05T05:34:40.949Z",
          "price": 2262
        },
        {
          "description": "Soft Pizza",
          "date": "2019-03-05T14:14:13.346Z",
          "price": 2668
        },
        {
          "description": "Handcrafted Computer",
          "date": "2019-02-25T07:22:49.253Z",
          "price": 2408
        },
        {
          "description": "Small Metal Salad",
          "date": "2019-02-25T22:19:14.839Z",
          "price": 1057
        },
        {
          "description": "Awesome Towels",
          "date": "2019-03-02T17:23:33.035Z",
          "price": 258
        },
        {
          "description": "Soft Fish",
          "date": "2019-03-01T03:54:37.325Z",
          "price": 824
        },
        {
          "description": "Tuna",
          "date": "2019-03-06T08:15:52.715Z",
          "price": 2232
        },
        {
          "description": "Refined Plastic Bacon",
          "date": "2019-02-25T10:08:55.571Z",
          "price": 1543
        },
        {
          "description": "Shirt",
          "date": "2019-03-01T13:44:40.947Z",
          "price": 1857
        },
        {
          "description": "Intelligent Wooden Fish",
          "date": "2019-03-03T19:35:18.246Z",
          "price": 1087
        },
        {
          "description": "Handmade Cotton Sausages",
          "date": "2019-03-04T06:09:40.166Z",
          "price": 1368
        },
        {
          "description": "Ball",
          "date": "2019-02-28T12:35:42.017Z",
          "price": 799
        },
        {
          "description": "Cotton Chair",
          "date": "2019-03-01T10:03:00.417Z",
          "price": 1206
        },
        {
          "description": "Unbranded Wooden Gloves",
          "date": "2019-03-06T03:19:30.813Z",
          "price": 801.98
        },
        {
          "description": "Frozen Bike",
          "date": "2019-03-04T07:45:46.830Z",
          "price": 1546.17
        },
        {
          "description": "Licensed Chair",
          "date": "2019-03-02T02:21:18.827Z",
          "price": 1855
        },
        {
          "description": "Tasty Plastic Chips",
          "date": "2019-03-06T10:16:44.552Z",
          "price": 743
        },
        {
          "description": "Gorgeous Mouse",
          "date": "2019-02-26T02:10:26.274Z",
          "price": 2452
        },
        {
          "description": "Handcrafted Soft Tuna",
          "date": "2019-03-02T20:34:10.797Z",
          "price": 2005
        },
        {
          "description": "Licensed Soft Salad",
          "date": "2019-02-27T06:47:45.496Z",
          "price": 1767
        },
        {
          "description": "Licensed Soft Pants",
          "date": "2019-02-25T05:59:04.811Z",
          "price": 648
        },
        {
          "description": "Tasty Plastic Cheese",
          "date": "2019-03-03T15:42:31.430Z",
          "price": 2761
        },
        {
          "description": "Handmade Keyboard",
          "date": "2019-02-25T10:37:10.953Z",
          "price": 2223
        },
        {
          "description": "Rustic Plastic Sausages",
          "date": "2019-03-05T11:51:04.477Z",
          "price": 459
        },
        {
          "description": "Fantastic Metal Soap",
          "date": "2019-02-28T19:17:16.859Z",
          "price": 416
        },
        {
          "description": "Ergonomic Granite Chips",
          "date": "2019-02-25T08:44:29.298Z",
          "price": 2467
        },
        {
          "description": "Licensed Shoes",
          "date": "2019-03-01T07:49:28.968Z",
          "price": 2299
        },
        {
          "description": "Awesome Chicken",
          "date": "2019-03-04T23:46:43.347Z",
          "price": 851
        },
        {
          "description": "Granite Cheese",
          "date": "2019-03-01T21:01:43.527Z",
          "price": 2682
        },
        {
          "description": "Rustic Frozen Fish",
          "date": "2019-02-18T06:37:01.483Z",
          "price": 2982
        },
        {
          "description": "Granite Towels",
          "date": "2019-02-23T00:30:52.401Z",
          "price": 888
        },
        {
          "description": "Intelligent Fresh Cheese",
          "date": "2019-02-24T05:16:06.786Z",
          "price": 2536
        },
        {
          "description": "Handmade Soft Tuna",
          "date": "2019-02-23T04:40:20.435Z",
          "price": 2295
        },
        {
          "description": "Awesome Salad",
          "date": "2019-02-23T04:19:07.093Z",
          "price": 635
        },
        {
          "description": "Handmade Soft Chair",
          "date": "2019-02-24T01:16:11.287Z",
          "price": 2236
        },
        {
          "description": "Tasty Metal Sausages",
          "date": "2019-02-12T16:40:07.430Z",
          "price": 2189
        },
        {
          "description": "Shirt",
          "date": "2019-02-22T08:59:19.485Z",
          "price": 2385
        },
        {
          "description": "Intelligent Bike",
          "date": "2019-02-12T19:07:45.424Z",
          "price": 1124
        },
        {
          "description": "Cotton Tuna",
          "date": "2019-02-19T06:45:25.095Z",
          "price": 1169
        },
        {
          "description": "Ergonomic Shirt",
          "date": "2019-02-20T00:16:18.485Z",
          "price": 1532
        },
        {
          "description": "Rubber Pants",
          "date": "2019-02-21T15:44:11.684Z",
          "price": 2612
        },
        {
          "description": "Metal Ball",
          "date": "2019-02-22T07:34:57.730Z",
          "price": 537
        },
        {
          "description": "Awesome Cotton Sausages",
          "date": "2019-02-19T17:57:10.221Z",
          "price": 1725
        },
        {
          "description": "Small Mouse",
          "date": "2019-02-20T13:44:47.256Z",
          "price": 2134
        },
        {
          "description": "Chicken",
          "date": "2019-02-20T12:00:54.185Z",
          "price": 2766
        },
        {
          "description": "Sleek Soft Table",
          "date": "2019-02-21T06:27:31.118Z",
          "price": 826
        },
        {
          "description": "Handcrafted Fresh Pants",
          "date": "2019-02-20T23:50:42.965Z",
          "price": 321
        },
        {
          "description": "Licensed Rubber Chicken",
          "date": "2019-02-21T13:12:11.217Z",
          "price": 2727
        },
        {
          "description": "Awesome Shirt",
          "date": "2019-02-13T19:41:55.807Z",
          "price": 2392
        },
        {
          "description": "Gorgeous Soft Gloves",
          "date": "2019-02-14T12:23:21.297Z",
          "price": 1986
        },
        {
          "description": "Cotton Chair",
          "date": "2019-02-15T13:23:18.105Z",
          "price": 1152
        },
        {
          "description": "Unbranded Granite Computer",
          "date": "2019-02-16T15:09:07.711Z",
          "price": 2289
        },
        {
          "description": "Sleek Chips",
          "date": "2019-02-17T04:21:12.767Z",
          "price": 412
        },
        {
          "description": "Fantastic Cotton Keyboard",
          "date": "2019-02-19T04:17:48.886Z",
          "price": 2601
        },
        {
          "description": "Computer",
          "date": "2019-02-15T16:24:21.017Z",
          "price": 653
        },
        {
          "description": "Generic Bike",
          "date": "2019-02-16T15:08:02.600Z",
          "price": 630
        },
        {
          "description": "Sleek Chicken",
          "date": "2019-02-18T12:14:39.648Z",
          "price": 274
        },
        {
          "description": "Concrete Fish",
          "date": "2019-02-18T12:55:41.210Z",
          "price": 491
        },
        {
          "description": "Rubber Sausages",
          "date": "2019-02-16T14:34:10.867Z",
          "price": 964
        },
        {
          "description": "Tasty Chair",
          "date": "2019-02-18T23:24:19.632Z",
          "price": 1383
        },
        {
          "description": "Ergonomic Wooden Cheese",
          "date": "2019-02-15T10:46:36.895Z",
          "price": 1736
        },
        {
          "description": "Concrete Chicken",
          "date": "2019-02-18T10:34:58.966Z",
          "price": 1850
        },
        {
          "description": "Fresh Bacon",
          "date": "2019-02-16T11:41:12.351Z",
          "price": 796
        },
        {
          "description": "Sleek Metal Shoes",
          "date": "2019-02-14T10:08:09.378Z",
          "price": 2930
        },
        {
          "description": "Cheese",
          "date": "2019-02-14T08:03:51.266Z",
          "price": 2645
        },
        {
          "description": "Metal Pizza",
          "date": "2019-02-13T22:54:29.801Z",
          "price": 415
        },
        {
          "description": "Small Fresh Table",
          "date": "2019-02-13T14:25:15.975Z",
          "price": 2394
        },
        {
          "description": "Incredible Concrete Tuna",
          "date": "2019-02-13T03:20:36.503Z",
          "price": 1285
        },
        {
          "description": "Rubber Bacon",
          "date": "2019-02-13T02:55:58.278Z",
          "price": 2232
        },
        {
          "description": "Small Soap",
          "date": "2019-02-13T01:39:40.044Z",
          "price": 2594
        },
        {
          "description": "Incredible Cotton Chair",
          "date": "2019-02-12T21:43:53.857Z",
          "price": 2795
        },
        {
          "description": "Unbranded Frozen Fish",
          "date": "2019-02-12T16:33:25.978Z",
          "price": 2551
        }
      ]
    },
    {
      "name": "Emard - Kunde Sports",
      "merchant_id": "A1210",
      "pricing": {
        "subsidy": 11,
        "discount_subsidy": 9,
        "discount_cutoff": 600
      },
      "transactions": [
        {
          "description": "Intelligent Wooden Pants",
          "date": "2019-03-10T11:50:20.250Z",
          "price": 2850
        },
        {
          "description": "Fantastic Soft Fish",
          "date": "2019-03-12T11:31:49.214Z",
          "price": 2725
        },
        {
          "description": "Keyboard",
          "date": "2019-03-14T07:52:49.199Z",
          "price": 2889
        },
        {
          "description": "Intelligent Keyboard",
          "date": "2019-03-12T23:34:54.326Z",
          "price": 2414
        },
        {
          "description": "Granite Car",
          "date": "2019-03-14T15:56:16.190Z",
          "price": 1389
        },
        {
          "description": "Unbranded Fresh Table",
          "date": "2019-03-04T08:10:33.989Z",
          "price": 2020
        },
        {
          "description": "Concrete Computer",
          "date": "2019-02-15T12:03:43.253Z",
          "price": 2226
        },
        {
          "description": "Towels",
          "date": "2019-03-12T04:50:17.722Z",
          "price": 2897
        },
        {
          "description": "Metal Gloves",
          "date": "2019-02-17T16:46:07.674Z",
          "price": 2257
        },
        {
          "description": "Sleek Metal Cheese",
          "date": "2019-02-20T16:27:14.118Z",
          "price": 503
        },
        {
          "description": "Gorgeous Cotton Hat",
          "date": "2019-02-17T04:24:04.238Z",
          "price": 673
        },
        {
          "description": "Table",
          "date": "2019-03-02T10:21:36.328Z",
          "price": 1252
        },
        {
          "description": "Soft Shirt",
          "date": "2019-02-19T18:13:12.215Z",
          "price": 576
        },
        {
          "description": "Plastic Shirt",
          "date": "2019-02-19T02:29:25.593Z",
          "price": 1730
        },
        {
          "description": "Incredible Steel Gloves",
          "date": "2019-02-20T04:09:01.892Z",
          "price": 2386
        },
        {
          "description": "Wooden Bike",
          "date": "2019-02-23T22:42:16.445Z",
          "price": 1541
        },
        {
          "description": "Tasty Fresh Pants",
          "date": "2019-03-08T06:49:08.260Z",
          "price": 2772
        },
        {
          "description": "Licensed Frozen Bacon",
          "date": "2019-03-06T14:11:20.431Z",
          "price": 2703
        },
        {
          "description": "Handcrafted Cotton Car",
          "date": "2019-02-16T05:32:16.211Z",
          "price": 1678
        },
        {
          "description": "Handcrafted Keyboard",
          "date": "2019-03-10T14:48:50.620Z",
          "price": 967
        },
        {
          "description": "Tasty Cheese",
          "date": "2019-02-24T13:38:50.773Z",
          "price": 1859
        },
        {
          "description": "Table",
          "date": "2019-03-05T19:09:35.269Z",
          "price": 2555
        },
        {
          "description": "Generic Soft Bike",
          "date": "2019-02-17T08:27:03.165Z",
          "price": 965
        },
        {
          "description": "Small Wooden Salad",
          "date": "2019-02-20T03:21:50.610Z",
          "price": 928
        },
        {
          "description": "Intelligent Soft Tuna",
          "date": "2019-03-10T13:23:00.249Z",
          "price": 2125
        },
        {
          "description": "Rustic Granite Bacon",
          "date": "2019-02-15T23:59:30.193Z",
          "price": 1095
        },
        {
          "description": "Tasty Wooden Cheese",
          "date": "2019-02-25T00:06:54.635Z",
          "price": 2963
        },
        {
          "description": "Generic Soft Car",
          "date": "2019-03-06T08:15:37.899Z",
          "price": 685
        },
        {
          "description": "Awesome Metal Pants",
          "date": "2019-03-05T04:20:26.666Z",
          "price": 1021
        },
        {
          "description": "Concrete Fish",
          "date": "2019-03-12T03:12:32.183Z",
          "price": 2992
        },
        {
          "description": "Sleek Concrete Keyboard",
          "date": "2019-02-26T13:56:45.480Z",
          "price": 2924
        },
        {
          "description": "Intelligent Bike",
          "date": "2019-02-17T10:32:51.846Z",
          "price": 1201
        },
        {
          "description": "Practical Shirt",
          "date": "2019-02-15T04:43:30.049Z",
          "price": 1403
        },
        {
          "description": "Fantastic Concrete Hat",
          "date": "2019-02-14T19:16:50.287Z",
          "price": 1752
        },
        {
          "description": "Tasty Cotton Bike",
          "date": "2019-02-14T10:53:05.965Z",
          "price": 886
        },
        {
          "description": "Licensed Cotton Ball",
          "date": "2019-02-14T09:30:24.865Z",
          "price": 2666
        }
      ]
    }
  ]
}
